-- Merging decision tree log ---
provider#androidx.core.content.FileProvider
INJECTED from /Users/christopherluna/Documents/work/newInfocap/android/app/src/main/AndroidManifest.xml:34:9-42:20
	android:grantUriPermissions
		ADDED from /Users/christopherluna/Documents/work/newInfocap/android/app/src/main/AndroidManifest.xml:38:13-47
	android:authorities
		INJECTED from /Users/christopherluna/Documents/work/newInfocap/android/app/src/main/AndroidManifest.xml
		ADDED from /Users/christopherluna/Documents/work/newInfocap/android/app/src/main/AndroidManifest.xml:36:13-64
	android:exported
		ADDED from /Users/christopherluna/Documents/work/newInfocap/android/app/src/main/AndroidManifest.xml:37:13-37
	android:name
		ADDED from /Users/christopherluna/Documents/work/newInfocap/android/app/src/main/AndroidManifest.xml:35:13-62
manifest
ADDED from /Users/christopherluna/Documents/work/newInfocap/android/app/src/main/AndroidManifest.xml:2:1-63:12
INJECTED from /Users/christopherluna/Documents/work/newInfocap/android/app/src/main/AndroidManifest.xml:2:1-63:12
INJECTED from /Users/christopherluna/Documents/work/newInfocap/android/app/src/main/AndroidManifest.xml:2:1-63:12
INJECTED from /Users/christopherluna/Documents/work/newInfocap/android/app/src/main/AndroidManifest.xml:2:1-63:12
MERGED from [:capacitor-android] /Users/christopherluna/Documents/work/newInfocap/node_modules/@capacitor/android/capacitor/build/intermediates/library_manifest/debug/AndroidManifest.xml:2:1-50:12
MERGED from [com.google.android.material:material:1.1.0-rc02] /Users/christopherluna/.gradle/caches/transforms-2/files-2.1/102b3c44740e06a0c65ab0c577ce7e61/material-1.1.0-rc02/AndroidManifest.xml:17:1-24:12
MERGED from [androidx.appcompat:appcompat:1.1.0] /Users/christopherluna/.gradle/caches/transforms-2/files-2.1/d38bcf900577a63e0da310b3fe272179/appcompat-1.1.0/AndroidManifest.xml:17:1-24:12
MERGED from [:capacitor-cordova-android-plugins] /Users/christopherluna/Documents/work/newInfocap/android/capacitor-cordova-android-plugins/build/intermediates/library_manifest/debug/AndroidManifest.xml:2:1-18:12
MERGED from [androidx.cursoradapter:cursoradapter:1.0.0] /Users/christopherluna/.gradle/caches/transforms-2/files-2.1/61e488a7b48ffc8255adc230dafa50f0/cursoradapter-1.0.0/AndroidManifest.xml:17:1-22:12
MERGED from [androidx.viewpager2:viewpager2:1.0.0] /Users/christopherluna/.gradle/caches/transforms-2/files-2.1/283499019944b954344c21ecf1019372/jetified-viewpager2-1.0.0/AndroidManifest.xml:17:1-24:12
MERGED from [com.google.firebase:firebase-messaging:20.1.2] /Users/christopherluna/.gradle/caches/transforms-2/files-2.1/c6fe0f05486c9f14086b1b659ca69db6/jetified-firebase-messaging-20.1.2/AndroidManifest.xml:17:1-44:12
MERGED from [com.google.android.gms:play-services-location:17.0.0] /Users/christopherluna/.gradle/caches/transforms-2/files-2.1/febea47f8deaefcdcab072224acc8dc4/jetified-play-services-location-17.0.0/AndroidManifest.xml:2:1-9:12
MERGED from [com.google.firebase:firebase-datatransport:17.0.3] /Users/christopherluna/.gradle/caches/transforms-2/files-2.1/3df16c329eb72525b235a791e531d7a8/jetified-firebase-datatransport-17.0.3/AndroidManifest.xml:15:1-34:12
MERGED from [com.google.firebase:firebase-iid:20.1.1] /Users/christopherluna/.gradle/caches/transforms-2/files-2.1/199793d6c6cd32607f7663b06913b6b0/jetified-firebase-iid-20.1.1/AndroidManifest.xml:17:1-47:12
MERGED from [com.google.firebase:firebase-installations:16.0.0] /Users/christopherluna/.gradle/caches/transforms-2/files-2.1/1fc34a2957977e5d72908a2cfd4e5c7c/jetified-firebase-installations-16.0.0/AndroidManifest.xml:2:1-23:12
MERGED from [com.google.firebase:firebase-common:19.3.0] /Users/christopherluna/.gradle/caches/transforms-2/files-2.1/561224d95afb1c86e82bde3d66c2b645/jetified-firebase-common-19.3.0/AndroidManifest.xml:15:1-39:12
MERGED from [com.google.firebase:firebase-iid-interop:17.0.0] /Users/christopherluna/.gradle/caches/transforms-2/files-2.1/036d300a486c24e4bea8092db2663d59/jetified-firebase-iid-interop-17.0.0/AndroidManifest.xml:2:1-10:12
MERGED from [com.google.android.gms:play-services-base:17.0.0] /Users/christopherluna/.gradle/caches/transforms-2/files-2.1/7c07e5a7fa6d974b3595f7f2f9a9eba1/jetified-play-services-base-17.0.0/AndroidManifest.xml:17:1-29:12
MERGED from [com.google.firebase:firebase-installations-interop:16.0.0] /Users/christopherluna/.gradle/caches/transforms-2/files-2.1/0862495cd9e9e004694e9f394014a35b/jetified-firebase-installations-interop-16.0.0/AndroidManifest.xml:15:1-23:12
MERGED from [com.google.android.gms:play-services-tasks:17.0.0] /Users/christopherluna/.gradle/caches/transforms-2/files-2.1/614df3a245b2c343e34e8a76449eebf2/jetified-play-services-tasks-17.0.0/AndroidManifest.xml:2:1-9:12
MERGED from [com.google.firebase:firebase-measurement-connector:18.0.0] /Users/christopherluna/.gradle/caches/transforms-2/files-2.1/e749ac1d1176bb9cd9bc25461c0be3a0/jetified-firebase-measurement-connector-18.0.0/AndroidManifest.xml:17:1-25:12
MERGED from [com.google.android.gms:play-services-places-placereport:17.0.0] /Users/christopherluna/.gradle/caches/transforms-2/files-2.1/a81ab35d04e4880ea187ddd23a52234a/jetified-play-services-places-placereport-17.0.0/AndroidManifest.xml:17:1-24:12
MERGED from [com.google.android.gms:play-services-stats:17.0.0] /Users/christopherluna/.gradle/caches/transforms-2/files-2.1/038edd49363f603fbef80e09a9f407b2/jetified-play-services-stats-17.0.0/AndroidManifest.xml:2:1-9:12
MERGED from [com.google.android.gms:play-services-basement:17.0.0] /Users/christopherluna/.gradle/caches/transforms-2/files-2.1/a52bfb92d2b276c79d11db281b8aa668/jetified-play-services-basement-17.0.0/AndroidManifest.xml:17:1-28:12
MERGED from [androidx.fragment:fragment:1.1.0] /Users/christopherluna/.gradle/caches/transforms-2/files-2.1/d552d54d79891b2a9c69132582332e2f/fragment-1.1.0/AndroidManifest.xml:17:1-24:12
MERGED from [androidx.appcompat:appcompat-resources:1.1.0] /Users/christopherluna/.gradle/caches/transforms-2/files-2.1/31016d94c9a98a1d54cfe375d67f4559/jetified-appcompat-resources-1.1.0/AndroidManifest.xml:17:1-24:12
MERGED from [androidx.drawerlayout:drawerlayout:1.0.0] /Users/christopherluna/.gradle/caches/transforms-2/files-2.1/9d28e40defdf6a4e3602d97c075e17f2/drawerlayout-1.0.0/AndroidManifest.xml:17:1-22:12
MERGED from [androidx.browser:browser:1.2.0] /Users/christopherluna/.gradle/caches/transforms-2/files-2.1/f4cbb3a779e32db78e3b6c8e4b5173a1/browser-1.2.0/AndroidManifest.xml:17:1-24:12
MERGED from [androidx.viewpager:viewpager:1.0.0] /Users/christopherluna/.gradle/caches/transforms-2/files-2.1/d41f6a590796eccba86906146b86c0e8/viewpager-1.0.0/AndroidManifest.xml:17:1-22:12
MERGED from [androidx.legacy:legacy-support-core-utils:1.0.0] /Users/christopherluna/.gradle/caches/transforms-2/files-2.1/652ae343ce7045a2f751e9940f7d865d/legacy-support-core-utils-1.0.0/AndroidManifest.xml:17:1-22:12
MERGED from [androidx.loader:loader:1.0.0] /Users/christopherluna/.gradle/caches/transforms-2/files-2.1/967ac9d00d0570a1e1fe1c7644cdc60a/loader-1.0.0/AndroidManifest.xml:17:1-22:12
MERGED from [androidx.activity:activity:1.0.0] /Users/christopherluna/.gradle/caches/transforms-2/files-2.1/fcea55302b5d2e843f6bf32f4bea1587/jetified-activity-1.0.0/AndroidManifest.xml:17:1-24:12
MERGED from [androidx.vectordrawable:vectordrawable-animated:1.1.0] /Users/christopherluna/.gradle/caches/transforms-2/files-2.1/ef6bbd80072226febbd8b1eb2582757c/vectordrawable-animated-1.1.0/AndroidManifest.xml:17:1-24:12
MERGED from [androidx.vectordrawable:vectordrawable:1.1.0] /Users/christopherluna/.gradle/caches/transforms-2/files-2.1/bf86200cdd995924b2760bb57cd14010/vectordrawable-1.1.0/AndroidManifest.xml:17:1-24:12
MERGED from [androidx.coordinatorlayout:coordinatorlayout:1.1.0] /Users/christopherluna/.gradle/caches/transforms-2/files-2.1/b8f6da53f8601c0b0ad135bf04e1fd79/coordinatorlayout-1.1.0/AndroidManifest.xml:17:1-24:12
MERGED from [androidx.recyclerview:recyclerview:1.1.0] /Users/christopherluna/.gradle/caches/transforms-2/files-2.1/5b59b01475618829fe79ad446c5facaf/recyclerview-1.1.0/AndroidManifest.xml:17:1-24:12
MERGED from [androidx.customview:customview:1.0.0] /Users/christopherluna/.gradle/caches/transforms-2/files-2.1/8d4666f682775c60e9e0f1d669843aa7/customview-1.0.0/AndroidManifest.xml:17:1-22:12
MERGED from [androidx.transition:transition:1.2.0] /Users/christopherluna/.gradle/caches/transforms-2/files-2.1/c939c9d1cce5aa2f18956c8b9d20ad18/transition-1.2.0/AndroidManifest.xml:17:1-24:12
MERGED from [androidx.core:core:1.2.0] /Users/christopherluna/.gradle/caches/transforms-2/files-2.1/583d0de7df83d6366d0f0380146cace4/core-1.2.0/AndroidManifest.xml:17:1-26:12
MERGED from [androidx.localbroadcastmanager:localbroadcastmanager:1.0.0] /Users/christopherluna/.gradle/caches/transforms-2/files-2.1/5c5e5af1473cda4f9f188f4b37076293/localbroadcastmanager-1.0.0/AndroidManifest.xml:17:1-22:12
MERGED from [androidx.exifinterface:exifinterface:1.2.0] /Users/christopherluna/.gradle/caches/transforms-2/files-2.1/a897121207f57358e1821939525cde70/exifinterface-1.2.0/AndroidManifest.xml:17:1-24:12
MERGED from [androidx.versionedparcelable:versionedparcelable:1.1.0] /Users/christopherluna/.gradle/caches/transforms-2/files-2.1/f549a48962f97668ee442149d558a50d/versionedparcelable-1.1.0/AndroidManifest.xml:17:1-27:12
MERGED from [androidx.cardview:cardview:1.0.0] /Users/christopherluna/.gradle/caches/transforms-2/files-2.1/1955be693eb56c1139576e45ec90d484/cardview-1.0.0/AndroidManifest.xml:17:1-22:12
MERGED from [androidx.interpolator:interpolator:1.0.0] /Users/christopherluna/.gradle/caches/transforms-2/files-2.1/411b57b9b14e2dce30437831b520790e/interpolator-1.0.0/AndroidManifest.xml:17:1-22:12
MERGED from [com.google.android.datatransport:transport-backend-cct:2.2.0] /Users/christopherluna/.gradle/caches/transforms-2/files-2.1/80740ea671f9509e07d6a34e2b93f75c/jetified-transport-backend-cct-2.2.0/AndroidManifest.xml:15:1-38:12
MERGED from [com.google.android.datatransport:transport-runtime:2.2.0] /Users/christopherluna/.gradle/caches/transforms-2/files-2.1/65c9f7529c4981d43c925fa693badfa2/jetified-transport-runtime-2.2.0/AndroidManifest.xml:15:1-41:12
MERGED from [com.google.firebase:firebase-components:16.0.0] /Users/christopherluna/.gradle/caches/transforms-2/files-2.1/5e826c1b109742f8bca7b17a6327c1d0/jetified-firebase-components-16.0.0/AndroidManifest.xml:15:1-23:12
MERGED from [com.google.firebase:firebase-encoders-json:16.0.0] /Users/christopherluna/.gradle/caches/transforms-2/files-2.1/f9d65e81b499a1a3336efc50b9a88ef3/jetified-firebase-encoders-json-16.0.0/AndroidManifest.xml:15:1-23:12
MERGED from [androidx.lifecycle:lifecycle-runtime:2.1.0] /Users/christopherluna/.gradle/caches/transforms-2/files-2.1/a37cc7d38ecba109ecfb72735d489975/lifecycle-runtime-2.1.0/AndroidManifest.xml:17:1-22:12
MERGED from [androidx.lifecycle:lifecycle-viewmodel:2.1.0] /Users/christopherluna/.gradle/caches/transforms-2/files-2.1/c6f5bca5887ecb4409ba6069f8d7382e/lifecycle-viewmodel-2.1.0/AndroidManifest.xml:17:1-22:12
MERGED from [androidx.savedstate:savedstate:1.0.0] /Users/christopherluna/.gradle/caches/transforms-2/files-2.1/cae9d7df45129530ff877ef3c8a4c88d/jetified-savedstate-1.0.0/AndroidManifest.xml:17:1-24:12
MERGED from [androidx.lifecycle:lifecycle-livedata:2.0.0] /Users/christopherluna/.gradle/caches/transforms-2/files-2.1/8688f7244dd4ab0541bbbfd60a830f17/lifecycle-livedata-2.0.0/AndroidManifest.xml:17:1-22:12
MERGED from [androidx.lifecycle:lifecycle-livedata-core:2.0.0] /Users/christopherluna/.gradle/caches/transforms-2/files-2.1/e31b71f57c5cf8e3a670371795980592/lifecycle-livedata-core-2.0.0/AndroidManifest.xml:17:1-22:12
MERGED from [androidx.arch.core:core-runtime:2.0.0] /Users/christopherluna/.gradle/caches/transforms-2/files-2.1/dfe8cc82fa279aa5c223402d6e9d41f9/core-runtime-2.0.0/AndroidManifest.xml:17:1-22:12
MERGED from [androidx.documentfile:documentfile:1.0.0] /Users/christopherluna/.gradle/caches/transforms-2/files-2.1/86aa7fcb6f12855a4b953477a2672233/documentfile-1.0.0/AndroidManifest.xml:17:1-22:12
MERGED from [androidx.print:print:1.0.0] /Users/christopherluna/.gradle/caches/transforms-2/files-2.1/6320adba18b4d4720bd8695f5fffc52f/print-1.0.0/AndroidManifest.xml:17:1-22:12
MERGED from [org.apache.cordova:framework:7.0.0] /Users/christopherluna/.gradle/caches/transforms-2/files-2.1/c1ca5d0a1b33de69d3f35337e7942eb8/jetified-framework-7.0.0/AndroidManifest.xml:20:1-27:12
MERGED from [com.google.android.datatransport:transport-api:2.2.0] /Users/christopherluna/.gradle/caches/transforms-2/files-2.1/2915d1d7082de4bb0fb820d3fa381a33/jetified-transport-api-2.2.0/AndroidManifest.xml:15:1-22:12
INJECTED from /Users/christopherluna/Documents/work/newInfocap/android/app/src/main/AndroidManifest.xml:2:1-63:12
INJECTED from /Users/christopherluna/Documents/work/newInfocap/android/app/src/main/AndroidManifest.xml:2:1-63:12
INJECTED from /Users/christopherluna/Documents/work/newInfocap/android/app/src/main/AndroidManifest.xml:2:1-63:12
	package
		ADDED from /Users/christopherluna/Documents/work/newInfocap/android/app/src/main/AndroidManifest.xml:3:5-31
		INJECTED from /Users/christopherluna/Documents/work/newInfocap/android/app/src/main/AndroidManifest.xml
		INJECTED from /Users/christopherluna/Documents/work/newInfocap/android/app/src/main/AndroidManifest.xml
	android:versionName
		INJECTED from /Users/christopherluna/Documents/work/newInfocap/android/app/src/main/AndroidManifest.xml
		ADDED from /Users/christopherluna/Documents/work/newInfocap/android/app/src/main/AndroidManifest.xml:2:1-63:12
		INJECTED from /Users/christopherluna/Documents/work/newInfocap/android/app/src/main/AndroidManifest.xml
	android:versionCode
		INJECTED from /Users/christopherluna/Documents/work/newInfocap/android/app/src/main/AndroidManifest.xml
		ADDED from /Users/christopherluna/Documents/work/newInfocap/android/app/src/main/AndroidManifest.xml:2:1-63:12
		INJECTED from /Users/christopherluna/Documents/work/newInfocap/android/app/src/main/AndroidManifest.xml
	xmlns:android
		ADDED from /Users/christopherluna/Documents/work/newInfocap/android/app/src/main/AndroidManifest.xml:2:11-69
application
ADDED from /Users/christopherluna/Documents/work/newInfocap/android/app/src/main/AndroidManifest.xml:5:5-43:19
MERGED from [:capacitor-android] /Users/christopherluna/Documents/work/newInfocap/node_modules/@capacitor/android/capacitor/build/intermediates/library_manifest/debug/AndroidManifest.xml:18:5-48:19
MERGED from [:capacitor-android] /Users/christopherluna/Documents/work/newInfocap/node_modules/@capacitor/android/capacitor/build/intermediates/library_manifest/debug/AndroidManifest.xml:18:5-48:19
MERGED from [com.google.android.material:material:1.1.0-rc02] /Users/christopherluna/.gradle/caches/transforms-2/files-2.1/102b3c44740e06a0c65ab0c577ce7e61/material-1.1.0-rc02/AndroidManifest.xml:22:5-20
MERGED from [com.google.android.material:material:1.1.0-rc02] /Users/christopherluna/.gradle/caches/transforms-2/files-2.1/102b3c44740e06a0c65ab0c577ce7e61/material-1.1.0-rc02/AndroidManifest.xml:22:5-20
MERGED from [:capacitor-cordova-android-plugins] /Users/christopherluna/Documents/work/newInfocap/android/capacitor-cordova-android-plugins/build/intermediates/library_manifest/debug/AndroidManifest.xml:15:5-16:19
MERGED from [:capacitor-cordova-android-plugins] /Users/christopherluna/Documents/work/newInfocap/android/capacitor-cordova-android-plugins/build/intermediates/library_manifest/debug/AndroidManifest.xml:15:5-16:19
MERGED from [com.google.firebase:firebase-messaging:20.1.2] /Users/christopherluna/.gradle/caches/transforms-2/files-2.1/c6fe0f05486c9f14086b1b659ca69db6/jetified-firebase-messaging-20.1.2/AndroidManifest.xml:22:5-42:19
MERGED from [com.google.firebase:firebase-messaging:20.1.2] /Users/christopherluna/.gradle/caches/transforms-2/files-2.1/c6fe0f05486c9f14086b1b659ca69db6/jetified-firebase-messaging-20.1.2/AndroidManifest.xml:22:5-42:19
MERGED from [com.google.android.gms:play-services-location:17.0.0] /Users/christopherluna/.gradle/caches/transforms-2/files-2.1/febea47f8deaefcdcab072224acc8dc4/jetified-play-services-location-17.0.0/AndroidManifest.xml:7:5-20
MERGED from [com.google.android.gms:play-services-location:17.0.0] /Users/christopherluna/.gradle/caches/transforms-2/files-2.1/febea47f8deaefcdcab072224acc8dc4/jetified-play-services-location-17.0.0/AndroidManifest.xml:7:5-20
MERGED from [com.google.firebase:firebase-datatransport:17.0.3] /Users/christopherluna/.gradle/caches/transforms-2/files-2.1/3df16c329eb72525b235a791e531d7a8/jetified-firebase-datatransport-17.0.3/AndroidManifest.xml:24:5-32:19
MERGED from [com.google.firebase:firebase-datatransport:17.0.3] /Users/christopherluna/.gradle/caches/transforms-2/files-2.1/3df16c329eb72525b235a791e531d7a8/jetified-firebase-datatransport-17.0.3/AndroidManifest.xml:24:5-32:19
MERGED from [com.google.firebase:firebase-iid:20.1.1] /Users/christopherluna/.gradle/caches/transforms-2/files-2.1/199793d6c6cd32607f7663b06913b6b0/jetified-firebase-iid-20.1.1/AndroidManifest.xml:28:5-45:19
MERGED from [com.google.firebase:firebase-iid:20.1.1] /Users/christopherluna/.gradle/caches/transforms-2/files-2.1/199793d6c6cd32607f7663b06913b6b0/jetified-firebase-iid-20.1.1/AndroidManifest.xml:28:5-45:19
MERGED from [com.google.firebase:firebase-installations:16.0.0] /Users/christopherluna/.gradle/caches/transforms-2/files-2.1/1fc34a2957977e5d72908a2cfd4e5c7c/jetified-firebase-installations-16.0.0/AndroidManifest.xml:13:5-21:19
MERGED from [com.google.firebase:firebase-installations:16.0.0] /Users/christopherluna/.gradle/caches/transforms-2/files-2.1/1fc34a2957977e5d72908a2cfd4e5c7c/jetified-firebase-installations-16.0.0/AndroidManifest.xml:13:5-21:19
MERGED from [com.google.firebase:firebase-common:19.3.0] /Users/christopherluna/.gradle/caches/transforms-2/files-2.1/561224d95afb1c86e82bde3d66c2b645/jetified-firebase-common-19.3.0/AndroidManifest.xml:25:5-37:19
MERGED from [com.google.firebase:firebase-common:19.3.0] /Users/christopherluna/.gradle/caches/transforms-2/files-2.1/561224d95afb1c86e82bde3d66c2b645/jetified-firebase-common-19.3.0/AndroidManifest.xml:25:5-37:19
MERGED from [com.google.firebase:firebase-iid-interop:17.0.0] /Users/christopherluna/.gradle/caches/transforms-2/files-2.1/036d300a486c24e4bea8092db2663d59/jetified-firebase-iid-interop-17.0.0/AndroidManifest.xml:7:5-8:19
MERGED from [com.google.firebase:firebase-iid-interop:17.0.0] /Users/christopherluna/.gradle/caches/transforms-2/files-2.1/036d300a486c24e4bea8092db2663d59/jetified-firebase-iid-interop-17.0.0/AndroidManifest.xml:7:5-8:19
MERGED from [com.google.android.gms:play-services-base:17.0.0] /Users/christopherluna/.gradle/caches/transforms-2/files-2.1/7c07e5a7fa6d974b3595f7f2f9a9eba1/jetified-play-services-base-17.0.0/AndroidManifest.xml:22:5-27:19
MERGED from [com.google.android.gms:play-services-base:17.0.0] /Users/christopherluna/.gradle/caches/transforms-2/files-2.1/7c07e5a7fa6d974b3595f7f2f9a9eba1/jetified-play-services-base-17.0.0/AndroidManifest.xml:22:5-27:19
MERGED from [com.google.android.gms:play-services-tasks:17.0.0] /Users/christopherluna/.gradle/caches/transforms-2/files-2.1/614df3a245b2c343e34e8a76449eebf2/jetified-play-services-tasks-17.0.0/AndroidManifest.xml:7:5-20
MERGED from [com.google.android.gms:play-services-tasks:17.0.0] /Users/christopherluna/.gradle/caches/transforms-2/files-2.1/614df3a245b2c343e34e8a76449eebf2/jetified-play-services-tasks-17.0.0/AndroidManifest.xml:7:5-20
MERGED from [com.google.firebase:firebase-measurement-connector:18.0.0] /Users/christopherluna/.gradle/caches/transforms-2/files-2.1/e749ac1d1176bb9cd9bc25461c0be3a0/jetified-firebase-measurement-connector-18.0.0/AndroidManifest.xml:22:5-23:19
MERGED from [com.google.firebase:firebase-measurement-connector:18.0.0] /Users/christopherluna/.gradle/caches/transforms-2/files-2.1/e749ac1d1176bb9cd9bc25461c0be3a0/jetified-firebase-measurement-connector-18.0.0/AndroidManifest.xml:22:5-23:19
MERGED from [com.google.android.gms:play-services-places-placereport:17.0.0] /Users/christopherluna/.gradle/caches/transforms-2/files-2.1/a81ab35d04e4880ea187ddd23a52234a/jetified-play-services-places-placereport-17.0.0/AndroidManifest.xml:22:5-20
MERGED from [com.google.android.gms:play-services-places-placereport:17.0.0] /Users/christopherluna/.gradle/caches/transforms-2/files-2.1/a81ab35d04e4880ea187ddd23a52234a/jetified-play-services-places-placereport-17.0.0/AndroidManifest.xml:22:5-20
MERGED from [com.google.android.gms:play-services-stats:17.0.0] /Users/christopherluna/.gradle/caches/transforms-2/files-2.1/038edd49363f603fbef80e09a9f407b2/jetified-play-services-stats-17.0.0/AndroidManifest.xml:7:5-20
MERGED from [com.google.android.gms:play-services-stats:17.0.0] /Users/christopherluna/.gradle/caches/transforms-2/files-2.1/038edd49363f603fbef80e09a9f407b2/jetified-play-services-stats-17.0.0/AndroidManifest.xml:7:5-20
MERGED from [com.google.android.gms:play-services-basement:17.0.0] /Users/christopherluna/.gradle/caches/transforms-2/files-2.1/a52bfb92d2b276c79d11db281b8aa668/jetified-play-services-basement-17.0.0/AndroidManifest.xml:22:5-26:19
MERGED from [com.google.android.gms:play-services-basement:17.0.0] /Users/christopherluna/.gradle/caches/transforms-2/files-2.1/a52bfb92d2b276c79d11db281b8aa668/jetified-play-services-basement-17.0.0/AndroidManifest.xml:22:5-26:19
MERGED from [androidx.core:core:1.2.0] /Users/christopherluna/.gradle/caches/transforms-2/files-2.1/583d0de7df83d6366d0f0380146cace4/core-1.2.0/AndroidManifest.xml:24:5-89
MERGED from [androidx.core:core:1.2.0] /Users/christopherluna/.gradle/caches/transforms-2/files-2.1/583d0de7df83d6366d0f0380146cace4/core-1.2.0/AndroidManifest.xml:24:5-89
MERGED from [androidx.versionedparcelable:versionedparcelable:1.1.0] /Users/christopherluna/.gradle/caches/transforms-2/files-2.1/f549a48962f97668ee442149d558a50d/versionedparcelable-1.1.0/AndroidManifest.xml:24:5-25:19
MERGED from [androidx.versionedparcelable:versionedparcelable:1.1.0] /Users/christopherluna/.gradle/caches/transforms-2/files-2.1/f549a48962f97668ee442149d558a50d/versionedparcelable-1.1.0/AndroidManifest.xml:24:5-25:19
MERGED from [com.google.android.datatransport:transport-backend-cct:2.2.0] /Users/christopherluna/.gradle/caches/transforms-2/files-2.1/80740ea671f9509e07d6a34e2b93f75c/jetified-transport-backend-cct-2.2.0/AndroidManifest.xml:28:5-36:19
MERGED from [com.google.android.datatransport:transport-backend-cct:2.2.0] /Users/christopherluna/.gradle/caches/transforms-2/files-2.1/80740ea671f9509e07d6a34e2b93f75c/jetified-transport-backend-cct-2.2.0/AndroidManifest.xml:28:5-36:19
MERGED from [com.google.android.datatransport:transport-runtime:2.2.0] /Users/christopherluna/.gradle/caches/transforms-2/files-2.1/65c9f7529c4981d43c925fa693badfa2/jetified-transport-runtime-2.2.0/AndroidManifest.xml:25:5-39:19
MERGED from [com.google.android.datatransport:transport-runtime:2.2.0] /Users/christopherluna/.gradle/caches/transforms-2/files-2.1/65c9f7529c4981d43c925fa693badfa2/jetified-transport-runtime-2.2.0/AndroidManifest.xml:25:5-39:19
	android:appComponentFactory
		ADDED from [androidx.core:core:1.2.0] /Users/christopherluna/.gradle/caches/transforms-2/files-2.1/583d0de7df83d6366d0f0380146cace4/core-1.2.0/AndroidManifest.xml:24:18-86
	android:supportsRtl
		ADDED from /Users/christopherluna/Documents/work/newInfocap/android/app/src/main/AndroidManifest.xml:10:9-35
	android:label
		ADDED from /Users/christopherluna/Documents/work/newInfocap/android/app/src/main/AndroidManifest.xml:8:9-41
	android:roundIcon
		ADDED from /Users/christopherluna/Documents/work/newInfocap/android/app/src/main/AndroidManifest.xml:9:9-54
	android:icon
		ADDED from /Users/christopherluna/Documents/work/newInfocap/android/app/src/main/AndroidManifest.xml:7:9-43
	android:allowBackup
		ADDED from /Users/christopherluna/Documents/work/newInfocap/android/app/src/main/AndroidManifest.xml:6:9-35
	android:theme
		ADDED from /Users/christopherluna/Documents/work/newInfocap/android/app/src/main/AndroidManifest.xml:11:9-40
activity#io.ionic.starter.MainActivity
ADDED from /Users/christopherluna/Documents/work/newInfocap/android/app/src/main/AndroidManifest.xml:13:9-32:20
	android:label
		ADDED from /Users/christopherluna/Documents/work/newInfocap/android/app/src/main/AndroidManifest.xml:16:13-56
	android:launchMode
		ADDED from /Users/christopherluna/Documents/work/newInfocap/android/app/src/main/AndroidManifest.xml:18:13-44
	android:configChanges
		ADDED from /Users/christopherluna/Documents/work/newInfocap/android/app/src/main/AndroidManifest.xml:14:13-129
	android:theme
		ADDED from /Users/christopherluna/Documents/work/newInfocap/android/app/src/main/AndroidManifest.xml:17:13-62
	android:name
		ADDED from /Users/christopherluna/Documents/work/newInfocap/android/app/src/main/AndroidManifest.xml:15:13-57
intent-filter#action:name:android.intent.action.MAIN+category:name:android.intent.category.LAUNCHER
ADDED from /Users/christopherluna/Documents/work/newInfocap/android/app/src/main/AndroidManifest.xml:20:13-23:29
action#android.intent.action.MAIN
ADDED from /Users/christopherluna/Documents/work/newInfocap/android/app/src/main/AndroidManifest.xml:21:17-69
	android:name
		ADDED from /Users/christopherluna/Documents/work/newInfocap/android/app/src/main/AndroidManifest.xml:21:25-66
category#android.intent.category.LAUNCHER
ADDED from /Users/christopherluna/Documents/work/newInfocap/android/app/src/main/AndroidManifest.xml:22:17-77
	android:name
		ADDED from /Users/christopherluna/Documents/work/newInfocap/android/app/src/main/AndroidManifest.xml:22:27-74
intent-filter#action:name:android.intent.action.VIEW+category:name:android.intent.category.BROWSABLE+category:name:android.intent.category.DEFAULT+data:scheme:@string/custom_url_scheme
ADDED from /Users/christopherluna/Documents/work/newInfocap/android/app/src/main/AndroidManifest.xml:25:13-30:29
action#android.intent.action.VIEW
ADDED from /Users/christopherluna/Documents/work/newInfocap/android/app/src/main/AndroidManifest.xml:26:17-69
	android:name
		ADDED from /Users/christopherluna/Documents/work/newInfocap/android/app/src/main/AndroidManifest.xml:26:25-66
category#android.intent.category.DEFAULT
ADDED from /Users/christopherluna/Documents/work/newInfocap/android/app/src/main/AndroidManifest.xml:27:17-76
	android:name
		ADDED from /Users/christopherluna/Documents/work/newInfocap/android/app/src/main/AndroidManifest.xml:27:27-73
category#android.intent.category.BROWSABLE
ADDED from /Users/christopherluna/Documents/work/newInfocap/android/app/src/main/AndroidManifest.xml:28:17-78
	android:name
		ADDED from /Users/christopherluna/Documents/work/newInfocap/android/app/src/main/AndroidManifest.xml:28:27-75
data
ADDED from /Users/christopherluna/Documents/work/newInfocap/android/app/src/main/AndroidManifest.xml:29:17-68
	android:scheme
		ADDED from /Users/christopherluna/Documents/work/newInfocap/android/app/src/main/AndroidManifest.xml:29:23-65
uses-permission#android.permission.INTERNET
ADDED from /Users/christopherluna/Documents/work/newInfocap/android/app/src/main/AndroidManifest.xml:47:5-67
MERGED from [:capacitor-cordova-android-plugins] /Users/christopherluna/Documents/work/newInfocap/android/capacitor-cordova-android-plugins/build/intermediates/library_manifest/debug/AndroidManifest.xml:12:5-67
MERGED from [:capacitor-cordova-android-plugins] /Users/christopherluna/Documents/work/newInfocap/android/capacitor-cordova-android-plugins/build/intermediates/library_manifest/debug/AndroidManifest.xml:12:5-67
MERGED from [com.google.firebase:firebase-iid:20.1.1] /Users/christopherluna/.gradle/caches/transforms-2/files-2.1/199793d6c6cd32607f7663b06913b6b0/jetified-firebase-iid-20.1.1/AndroidManifest.xml:23:5-67
MERGED from [com.google.firebase:firebase-iid:20.1.1] /Users/christopherluna/.gradle/caches/transforms-2/files-2.1/199793d6c6cd32607f7663b06913b6b0/jetified-firebase-iid-20.1.1/AndroidManifest.xml:23:5-67
MERGED from [com.google.firebase:firebase-installations:16.0.0] /Users/christopherluna/.gradle/caches/transforms-2/files-2.1/1fc34a2957977e5d72908a2cfd4e5c7c/jetified-firebase-installations-16.0.0/AndroidManifest.xml:11:5-67
MERGED from [com.google.firebase:firebase-installations:16.0.0] /Users/christopherluna/.gradle/caches/transforms-2/files-2.1/1fc34a2957977e5d72908a2cfd4e5c7c/jetified-firebase-installations-16.0.0/AndroidManifest.xml:11:5-67
MERGED from [com.google.android.datatransport:transport-backend-cct:2.2.0] /Users/christopherluna/.gradle/caches/transforms-2/files-2.1/80740ea671f9509e07d6a34e2b93f75c/jetified-transport-backend-cct-2.2.0/AndroidManifest.xml:26:5-67
MERGED from [com.google.android.datatransport:transport-backend-cct:2.2.0] /Users/christopherluna/.gradle/caches/transforms-2/files-2.1/80740ea671f9509e07d6a34e2b93f75c/jetified-transport-backend-cct-2.2.0/AndroidManifest.xml:26:5-67
	android:name
		ADDED from /Users/christopherluna/Documents/work/newInfocap/android/app/src/main/AndroidManifest.xml:47:22-64
uses-permission#android.permission.READ_EXTERNAL_STORAGE
ADDED from /Users/christopherluna/Documents/work/newInfocap/android/app/src/main/AndroidManifest.xml:49:5-79
	android:name
		ADDED from /Users/christopherluna/Documents/work/newInfocap/android/app/src/main/AndroidManifest.xml:49:22-77
uses-permission#android.permission.WRITE_EXTERNAL_STORAGE
ADDED from /Users/christopherluna/Documents/work/newInfocap/android/app/src/main/AndroidManifest.xml:50:5-81
MERGED from [:capacitor-cordova-android-plugins] /Users/christopherluna/Documents/work/newInfocap/android/capacitor-cordova-android-plugins/build/intermediates/library_manifest/debug/AndroidManifest.xml:13:5-81
MERGED from [:capacitor-cordova-android-plugins] /Users/christopherluna/Documents/work/newInfocap/android/capacitor-cordova-android-plugins/build/intermediates/library_manifest/debug/AndroidManifest.xml:13:5-81
	android:name
		ADDED from /Users/christopherluna/Documents/work/newInfocap/android/app/src/main/AndroidManifest.xml:50:22-78
uses-permission#android.permission.ACCESS_COARSE_LOCATION
ADDED from /Users/christopherluna/Documents/work/newInfocap/android/app/src/main/AndroidManifest.xml:52:5-81
	android:name
		ADDED from /Users/christopherluna/Documents/work/newInfocap/android/app/src/main/AndroidManifest.xml:52:22-78
uses-permission#android.permission.ACCESS_FINE_LOCATION
ADDED from /Users/christopherluna/Documents/work/newInfocap/android/app/src/main/AndroidManifest.xml:53:5-79
	android:name
		ADDED from /Users/christopherluna/Documents/work/newInfocap/android/app/src/main/AndroidManifest.xml:53:22-76
uses-feature#android.hardware.location.gps
ADDED from /Users/christopherluna/Documents/work/newInfocap/android/app/src/main/AndroidManifest.xml:54:5-66
	android:name
		ADDED from /Users/christopherluna/Documents/work/newInfocap/android/app/src/main/AndroidManifest.xml:54:19-63
uses-permission#android.permission.ACCESS_NETWORK_STATE
ADDED from /Users/christopherluna/Documents/work/newInfocap/android/app/src/main/AndroidManifest.xml:56:5-79
MERGED from [com.google.firebase:firebase-iid:20.1.1] /Users/christopherluna/.gradle/caches/transforms-2/files-2.1/199793d6c6cd32607f7663b06913b6b0/jetified-firebase-iid-20.1.1/AndroidManifest.xml:22:5-79
MERGED from [com.google.firebase:firebase-iid:20.1.1] /Users/christopherluna/.gradle/caches/transforms-2/files-2.1/199793d6c6cd32607f7663b06913b6b0/jetified-firebase-iid-20.1.1/AndroidManifest.xml:22:5-79
MERGED from [com.google.firebase:firebase-installations:16.0.0] /Users/christopherluna/.gradle/caches/transforms-2/files-2.1/1fc34a2957977e5d72908a2cfd4e5c7c/jetified-firebase-installations-16.0.0/AndroidManifest.xml:10:5-79
MERGED from [com.google.firebase:firebase-installations:16.0.0] /Users/christopherluna/.gradle/caches/transforms-2/files-2.1/1fc34a2957977e5d72908a2cfd4e5c7c/jetified-firebase-installations-16.0.0/AndroidManifest.xml:10:5-79
MERGED from [com.google.android.datatransport:transport-backend-cct:2.2.0] /Users/christopherluna/.gradle/caches/transforms-2/files-2.1/80740ea671f9509e07d6a34e2b93f75c/jetified-transport-backend-cct-2.2.0/AndroidManifest.xml:25:5-79
MERGED from [com.google.android.datatransport:transport-backend-cct:2.2.0] /Users/christopherluna/.gradle/caches/transforms-2/files-2.1/80740ea671f9509e07d6a34e2b93f75c/jetified-transport-backend-cct-2.2.0/AndroidManifest.xml:25:5-79
MERGED from [com.google.android.datatransport:transport-runtime:2.2.0] /Users/christopherluna/.gradle/caches/transforms-2/files-2.1/65c9f7529c4981d43c925fa693badfa2/jetified-transport-runtime-2.2.0/AndroidManifest.xml:22:5-79
MERGED from [com.google.android.datatransport:transport-runtime:2.2.0] /Users/christopherluna/.gradle/caches/transforms-2/files-2.1/65c9f7529c4981d43c925fa693badfa2/jetified-transport-runtime-2.2.0/AndroidManifest.xml:22:5-79
	android:name
		ADDED from /Users/christopherluna/Documents/work/newInfocap/android/app/src/main/AndroidManifest.xml:56:22-76
uses-permission#android.permission.CAMERA
ADDED from /Users/christopherluna/Documents/work/newInfocap/android/app/src/main/AndroidManifest.xml:59:5-65
	android:name
		ADDED from /Users/christopherluna/Documents/work/newInfocap/android/app/src/main/AndroidManifest.xml:59:22-62
uses-permission#android.permission.RECORD_AUDIO
ADDED from /Users/christopherluna/Documents/work/newInfocap/android/app/src/main/AndroidManifest.xml:61:5-71
	android:name
		ADDED from /Users/christopherluna/Documents/work/newInfocap/android/app/src/main/AndroidManifest.xml:61:22-68
uses-permission#android.permission.MODIFY_AUDIO_SETTINGS
ADDED from /Users/christopherluna/Documents/work/newInfocap/android/app/src/main/AndroidManifest.xml:62:5-79
	android:name
		ADDED from /Users/christopherluna/Documents/work/newInfocap/android/app/src/main/AndroidManifest.xml:62:22-77
uses-sdk
INJECTED from /Users/christopherluna/Documents/work/newInfocap/android/app/src/main/AndroidManifest.xml reason: use-sdk injection requested
INJECTED from /Users/christopherluna/Documents/work/newInfocap/android/app/src/main/AndroidManifest.xml
INJECTED from /Users/christopherluna/Documents/work/newInfocap/android/app/src/main/AndroidManifest.xml
MERGED from [:capacitor-android] /Users/christopherluna/Documents/work/newInfocap/node_modules/@capacitor/android/capacitor/build/intermediates/library_manifest/debug/AndroidManifest.xml:7:5-9:41
MERGED from [:capacitor-android] /Users/christopherluna/Documents/work/newInfocap/node_modules/@capacitor/android/capacitor/build/intermediates/library_manifest/debug/AndroidManifest.xml:7:5-9:41
MERGED from [com.google.android.material:material:1.1.0-rc02] /Users/christopherluna/.gradle/caches/transforms-2/files-2.1/102b3c44740e06a0c65ab0c577ce7e61/material-1.1.0-rc02/AndroidManifest.xml:20:5-44
MERGED from [com.google.android.material:material:1.1.0-rc02] /Users/christopherluna/.gradle/caches/transforms-2/files-2.1/102b3c44740e06a0c65ab0c577ce7e61/material-1.1.0-rc02/AndroidManifest.xml:20:5-44
MERGED from [androidx.appcompat:appcompat:1.1.0] /Users/christopherluna/.gradle/caches/transforms-2/files-2.1/d38bcf900577a63e0da310b3fe272179/appcompat-1.1.0/AndroidManifest.xml:20:5-22:41
MERGED from [androidx.appcompat:appcompat:1.1.0] /Users/christopherluna/.gradle/caches/transforms-2/files-2.1/d38bcf900577a63e0da310b3fe272179/appcompat-1.1.0/AndroidManifest.xml:20:5-22:41
MERGED from [:capacitor-cordova-android-plugins] /Users/christopherluna/Documents/work/newInfocap/android/capacitor-cordova-android-plugins/build/intermediates/library_manifest/debug/AndroidManifest.xml:8:5-10:41
MERGED from [:capacitor-cordova-android-plugins] /Users/christopherluna/Documents/work/newInfocap/android/capacitor-cordova-android-plugins/build/intermediates/library_manifest/debug/AndroidManifest.xml:8:5-10:41
MERGED from [androidx.cursoradapter:cursoradapter:1.0.0] /Users/christopherluna/.gradle/caches/transforms-2/files-2.1/61e488a7b48ffc8255adc230dafa50f0/cursoradapter-1.0.0/AndroidManifest.xml:20:5-44
MERGED from [androidx.cursoradapter:cursoradapter:1.0.0] /Users/christopherluna/.gradle/caches/transforms-2/files-2.1/61e488a7b48ffc8255adc230dafa50f0/cursoradapter-1.0.0/AndroidManifest.xml:20:5-44
MERGED from [androidx.viewpager2:viewpager2:1.0.0] /Users/christopherluna/.gradle/caches/transforms-2/files-2.1/283499019944b954344c21ecf1019372/jetified-viewpager2-1.0.0/AndroidManifest.xml:20:5-22:41
MERGED from [androidx.viewpager2:viewpager2:1.0.0] /Users/christopherluna/.gradle/caches/transforms-2/files-2.1/283499019944b954344c21ecf1019372/jetified-viewpager2-1.0.0/AndroidManifest.xml:20:5-22:41
MERGED from [com.google.firebase:firebase-messaging:20.1.2] /Users/christopherluna/.gradle/caches/transforms-2/files-2.1/c6fe0f05486c9f14086b1b659ca69db6/jetified-firebase-messaging-20.1.2/AndroidManifest.xml:20:5-44
MERGED from [com.google.firebase:firebase-messaging:20.1.2] /Users/christopherluna/.gradle/caches/transforms-2/files-2.1/c6fe0f05486c9f14086b1b659ca69db6/jetified-firebase-messaging-20.1.2/AndroidManifest.xml:20:5-44
MERGED from [com.google.android.gms:play-services-location:17.0.0] /Users/christopherluna/.gradle/caches/transforms-2/files-2.1/febea47f8deaefcdcab072224acc8dc4/jetified-play-services-location-17.0.0/AndroidManifest.xml:5:5-44
MERGED from [com.google.android.gms:play-services-location:17.0.0] /Users/christopherluna/.gradle/caches/transforms-2/files-2.1/febea47f8deaefcdcab072224acc8dc4/jetified-play-services-location-17.0.0/AndroidManifest.xml:5:5-44
MERGED from [com.google.firebase:firebase-datatransport:17.0.3] /Users/christopherluna/.gradle/caches/transforms-2/files-2.1/3df16c329eb72525b235a791e531d7a8/jetified-firebase-datatransport-17.0.3/AndroidManifest.xml:19:5-21:41
MERGED from [com.google.firebase:firebase-datatransport:17.0.3] /Users/christopherluna/.gradle/caches/transforms-2/files-2.1/3df16c329eb72525b235a791e531d7a8/jetified-firebase-datatransport-17.0.3/AndroidManifest.xml:19:5-21:41
MERGED from [com.google.firebase:firebase-iid:20.1.1] /Users/christopherluna/.gradle/caches/transforms-2/files-2.1/199793d6c6cd32607f7663b06913b6b0/jetified-firebase-iid-20.1.1/AndroidManifest.xml:20:5-44
MERGED from [com.google.firebase:firebase-iid:20.1.1] /Users/christopherluna/.gradle/caches/transforms-2/files-2.1/199793d6c6cd32607f7663b06913b6b0/jetified-firebase-iid-20.1.1/AndroidManifest.xml:20:5-44
MERGED from [com.google.firebase:firebase-installations:16.0.0] /Users/christopherluna/.gradle/caches/transforms-2/files-2.1/1fc34a2957977e5d72908a2cfd4e5c7c/jetified-firebase-installations-16.0.0/AndroidManifest.xml:6:5-8:41
MERGED from [com.google.firebase:firebase-installations:16.0.0] /Users/christopherluna/.gradle/caches/transforms-2/files-2.1/1fc34a2957977e5d72908a2cfd4e5c7c/jetified-firebase-installations-16.0.0/AndroidManifest.xml:6:5-8:41
MERGED from [com.google.firebase:firebase-common:19.3.0] /Users/christopherluna/.gradle/caches/transforms-2/files-2.1/561224d95afb1c86e82bde3d66c2b645/jetified-firebase-common-19.3.0/AndroidManifest.xml:20:5-22:41
MERGED from [com.google.firebase:firebase-common:19.3.0] /Users/christopherluna/.gradle/caches/transforms-2/files-2.1/561224d95afb1c86e82bde3d66c2b645/jetified-firebase-common-19.3.0/AndroidManifest.xml:20:5-22:41
MERGED from [com.google.firebase:firebase-iid-interop:17.0.0] /Users/christopherluna/.gradle/caches/transforms-2/files-2.1/036d300a486c24e4bea8092db2663d59/jetified-firebase-iid-interop-17.0.0/AndroidManifest.xml:5:5-44
MERGED from [com.google.firebase:firebase-iid-interop:17.0.0] /Users/christopherluna/.gradle/caches/transforms-2/files-2.1/036d300a486c24e4bea8092db2663d59/jetified-firebase-iid-interop-17.0.0/AndroidManifest.xml:5:5-44
MERGED from [com.google.android.gms:play-services-base:17.0.0] /Users/christopherluna/.gradle/caches/transforms-2/files-2.1/7c07e5a7fa6d974b3595f7f2f9a9eba1/jetified-play-services-base-17.0.0/AndroidManifest.xml:20:5-44
MERGED from [com.google.android.gms:play-services-base:17.0.0] /Users/christopherluna/.gradle/caches/transforms-2/files-2.1/7c07e5a7fa6d974b3595f7f2f9a9eba1/jetified-play-services-base-17.0.0/AndroidManifest.xml:20:5-44
MERGED from [com.google.firebase:firebase-installations-interop:16.0.0] /Users/christopherluna/.gradle/caches/transforms-2/files-2.1/0862495cd9e9e004694e9f394014a35b/jetified-firebase-installations-interop-16.0.0/AndroidManifest.xml:19:5-21:41
MERGED from [com.google.firebase:firebase-installations-interop:16.0.0] /Users/christopherluna/.gradle/caches/transforms-2/files-2.1/0862495cd9e9e004694e9f394014a35b/jetified-firebase-installations-interop-16.0.0/AndroidManifest.xml:19:5-21:41
MERGED from [com.google.android.gms:play-services-tasks:17.0.0] /Users/christopherluna/.gradle/caches/transforms-2/files-2.1/614df3a245b2c343e34e8a76449eebf2/jetified-play-services-tasks-17.0.0/AndroidManifest.xml:5:5-44
MERGED from [com.google.android.gms:play-services-tasks:17.0.0] /Users/christopherluna/.gradle/caches/transforms-2/files-2.1/614df3a245b2c343e34e8a76449eebf2/jetified-play-services-tasks-17.0.0/AndroidManifest.xml:5:5-44
MERGED from [com.google.firebase:firebase-measurement-connector:18.0.0] /Users/christopherluna/.gradle/caches/transforms-2/files-2.1/e749ac1d1176bb9cd9bc25461c0be3a0/jetified-firebase-measurement-connector-18.0.0/AndroidManifest.xml:20:5-44
MERGED from [com.google.firebase:firebase-measurement-connector:18.0.0] /Users/christopherluna/.gradle/caches/transforms-2/files-2.1/e749ac1d1176bb9cd9bc25461c0be3a0/jetified-firebase-measurement-connector-18.0.0/AndroidManifest.xml:20:5-44
MERGED from [com.google.android.gms:play-services-places-placereport:17.0.0] /Users/christopherluna/.gradle/caches/transforms-2/files-2.1/a81ab35d04e4880ea187ddd23a52234a/jetified-play-services-places-placereport-17.0.0/AndroidManifest.xml:20:5-44
MERGED from [com.google.android.gms:play-services-places-placereport:17.0.0] /Users/christopherluna/.gradle/caches/transforms-2/files-2.1/a81ab35d04e4880ea187ddd23a52234a/jetified-play-services-places-placereport-17.0.0/AndroidManifest.xml:20:5-44
MERGED from [com.google.android.gms:play-services-stats:17.0.0] /Users/christopherluna/.gradle/caches/transforms-2/files-2.1/038edd49363f603fbef80e09a9f407b2/jetified-play-services-stats-17.0.0/AndroidManifest.xml:5:5-44
MERGED from [com.google.android.gms:play-services-stats:17.0.0] /Users/christopherluna/.gradle/caches/transforms-2/files-2.1/038edd49363f603fbef80e09a9f407b2/jetified-play-services-stats-17.0.0/AndroidManifest.xml:5:5-44
MERGED from [com.google.android.gms:play-services-basement:17.0.0] /Users/christopherluna/.gradle/caches/transforms-2/files-2.1/a52bfb92d2b276c79d11db281b8aa668/jetified-play-services-basement-17.0.0/AndroidManifest.xml:20:5-44
MERGED from [com.google.android.gms:play-services-basement:17.0.0] /Users/christopherluna/.gradle/caches/transforms-2/files-2.1/a52bfb92d2b276c79d11db281b8aa668/jetified-play-services-basement-17.0.0/AndroidManifest.xml:20:5-44
MERGED from [androidx.fragment:fragment:1.1.0] /Users/christopherluna/.gradle/caches/transforms-2/files-2.1/d552d54d79891b2a9c69132582332e2f/fragment-1.1.0/AndroidManifest.xml:20:5-22:41
MERGED from [androidx.fragment:fragment:1.1.0] /Users/christopherluna/.gradle/caches/transforms-2/files-2.1/d552d54d79891b2a9c69132582332e2f/fragment-1.1.0/AndroidManifest.xml:20:5-22:41
MERGED from [androidx.appcompat:appcompat-resources:1.1.0] /Users/christopherluna/.gradle/caches/transforms-2/files-2.1/31016d94c9a98a1d54cfe375d67f4559/jetified-appcompat-resources-1.1.0/AndroidManifest.xml:20:5-22:41
MERGED from [androidx.appcompat:appcompat-resources:1.1.0] /Users/christopherluna/.gradle/caches/transforms-2/files-2.1/31016d94c9a98a1d54cfe375d67f4559/jetified-appcompat-resources-1.1.0/AndroidManifest.xml:20:5-22:41
MERGED from [androidx.drawerlayout:drawerlayout:1.0.0] /Users/christopherluna/.gradle/caches/transforms-2/files-2.1/9d28e40defdf6a4e3602d97c075e17f2/drawerlayout-1.0.0/AndroidManifest.xml:20:5-44
MERGED from [androidx.drawerlayout:drawerlayout:1.0.0] /Users/christopherluna/.gradle/caches/transforms-2/files-2.1/9d28e40defdf6a4e3602d97c075e17f2/drawerlayout-1.0.0/AndroidManifest.xml:20:5-44
MERGED from [androidx.browser:browser:1.2.0] /Users/christopherluna/.gradle/caches/transforms-2/files-2.1/f4cbb3a779e32db78e3b6c8e4b5173a1/browser-1.2.0/AndroidManifest.xml:20:5-22:41
MERGED from [androidx.browser:browser:1.2.0] /Users/christopherluna/.gradle/caches/transforms-2/files-2.1/f4cbb3a779e32db78e3b6c8e4b5173a1/browser-1.2.0/AndroidManifest.xml:20:5-22:41
MERGED from [androidx.viewpager:viewpager:1.0.0] /Users/christopherluna/.gradle/caches/transforms-2/files-2.1/d41f6a590796eccba86906146b86c0e8/viewpager-1.0.0/AndroidManifest.xml:20:5-44
MERGED from [androidx.viewpager:viewpager:1.0.0] /Users/christopherluna/.gradle/caches/transforms-2/files-2.1/d41f6a590796eccba86906146b86c0e8/viewpager-1.0.0/AndroidManifest.xml:20:5-44
MERGED from [androidx.legacy:legacy-support-core-utils:1.0.0] /Users/christopherluna/.gradle/caches/transforms-2/files-2.1/652ae343ce7045a2f751e9940f7d865d/legacy-support-core-utils-1.0.0/AndroidManifest.xml:20:5-44
MERGED from [androidx.legacy:legacy-support-core-utils:1.0.0] /Users/christopherluna/.gradle/caches/transforms-2/files-2.1/652ae343ce7045a2f751e9940f7d865d/legacy-support-core-utils-1.0.0/AndroidManifest.xml:20:5-44
MERGED from [androidx.loader:loader:1.0.0] /Users/christopherluna/.gradle/caches/transforms-2/files-2.1/967ac9d00d0570a1e1fe1c7644cdc60a/loader-1.0.0/AndroidManifest.xml:20:5-44
MERGED from [androidx.loader:loader:1.0.0] /Users/christopherluna/.gradle/caches/transforms-2/files-2.1/967ac9d00d0570a1e1fe1c7644cdc60a/loader-1.0.0/AndroidManifest.xml:20:5-44
MERGED from [androidx.activity:activity:1.0.0] /Users/christopherluna/.gradle/caches/transforms-2/files-2.1/fcea55302b5d2e843f6bf32f4bea1587/jetified-activity-1.0.0/AndroidManifest.xml:20:5-22:41
MERGED from [androidx.activity:activity:1.0.0] /Users/christopherluna/.gradle/caches/transforms-2/files-2.1/fcea55302b5d2e843f6bf32f4bea1587/jetified-activity-1.0.0/AndroidManifest.xml:20:5-22:41
MERGED from [androidx.vectordrawable:vectordrawable-animated:1.1.0] /Users/christopherluna/.gradle/caches/transforms-2/files-2.1/ef6bbd80072226febbd8b1eb2582757c/vectordrawable-animated-1.1.0/AndroidManifest.xml:20:5-22:41
MERGED from [androidx.vectordrawable:vectordrawable-animated:1.1.0] /Users/christopherluna/.gradle/caches/transforms-2/files-2.1/ef6bbd80072226febbd8b1eb2582757c/vectordrawable-animated-1.1.0/AndroidManifest.xml:20:5-22:41
MERGED from [androidx.vectordrawable:vectordrawable:1.1.0] /Users/christopherluna/.gradle/caches/transforms-2/files-2.1/bf86200cdd995924b2760bb57cd14010/vectordrawable-1.1.0/AndroidManifest.xml:20:5-22:41
MERGED from [androidx.vectordrawable:vectordrawable:1.1.0] /Users/christopherluna/.gradle/caches/transforms-2/files-2.1/bf86200cdd995924b2760bb57cd14010/vectordrawable-1.1.0/AndroidManifest.xml:20:5-22:41
MERGED from [androidx.coordinatorlayout:coordinatorlayout:1.1.0] /Users/christopherluna/.gradle/caches/transforms-2/files-2.1/b8f6da53f8601c0b0ad135bf04e1fd79/coordinatorlayout-1.1.0/AndroidManifest.xml:20:5-22:41
MERGED from [androidx.coordinatorlayout:coordinatorlayout:1.1.0] /Users/christopherluna/.gradle/caches/transforms-2/files-2.1/b8f6da53f8601c0b0ad135bf04e1fd79/coordinatorlayout-1.1.0/AndroidManifest.xml:20:5-22:41
MERGED from [androidx.recyclerview:recyclerview:1.1.0] /Users/christopherluna/.gradle/caches/transforms-2/files-2.1/5b59b01475618829fe79ad446c5facaf/recyclerview-1.1.0/AndroidManifest.xml:20:5-22:41
MERGED from [androidx.recyclerview:recyclerview:1.1.0] /Users/christopherluna/.gradle/caches/transforms-2/files-2.1/5b59b01475618829fe79ad446c5facaf/recyclerview-1.1.0/AndroidManifest.xml:20:5-22:41
MERGED from [androidx.customview:customview:1.0.0] /Users/christopherluna/.gradle/caches/transforms-2/files-2.1/8d4666f682775c60e9e0f1d669843aa7/customview-1.0.0/AndroidManifest.xml:20:5-44
MERGED from [androidx.customview:customview:1.0.0] /Users/christopherluna/.gradle/caches/transforms-2/files-2.1/8d4666f682775c60e9e0f1d669843aa7/customview-1.0.0/AndroidManifest.xml:20:5-44
MERGED from [androidx.transition:transition:1.2.0] /Users/christopherluna/.gradle/caches/transforms-2/files-2.1/c939c9d1cce5aa2f18956c8b9d20ad18/transition-1.2.0/AndroidManifest.xml:20:5-22:41
MERGED from [androidx.transition:transition:1.2.0] /Users/christopherluna/.gradle/caches/transforms-2/files-2.1/c939c9d1cce5aa2f18956c8b9d20ad18/transition-1.2.0/AndroidManifest.xml:20:5-22:41
MERGED from [androidx.core:core:1.2.0] /Users/christopherluna/.gradle/caches/transforms-2/files-2.1/583d0de7df83d6366d0f0380146cace4/core-1.2.0/AndroidManifest.xml:20:5-22:41
MERGED from [androidx.core:core:1.2.0] /Users/christopherluna/.gradle/caches/transforms-2/files-2.1/583d0de7df83d6366d0f0380146cace4/core-1.2.0/AndroidManifest.xml:20:5-22:41
MERGED from [androidx.localbroadcastmanager:localbroadcastmanager:1.0.0] /Users/christopherluna/.gradle/caches/transforms-2/files-2.1/5c5e5af1473cda4f9f188f4b37076293/localbroadcastmanager-1.0.0/AndroidManifest.xml:20:5-44
MERGED from [androidx.localbroadcastmanager:localbroadcastmanager:1.0.0] /Users/christopherluna/.gradle/caches/transforms-2/files-2.1/5c5e5af1473cda4f9f188f4b37076293/localbroadcastmanager-1.0.0/AndroidManifest.xml:20:5-44
MERGED from [androidx.exifinterface:exifinterface:1.2.0] /Users/christopherluna/.gradle/caches/transforms-2/files-2.1/a897121207f57358e1821939525cde70/exifinterface-1.2.0/AndroidManifest.xml:20:5-22:41
MERGED from [androidx.exifinterface:exifinterface:1.2.0] /Users/christopherluna/.gradle/caches/transforms-2/files-2.1/a897121207f57358e1821939525cde70/exifinterface-1.2.0/AndroidManifest.xml:20:5-22:41
MERGED from [androidx.versionedparcelable:versionedparcelable:1.1.0] /Users/christopherluna/.gradle/caches/transforms-2/files-2.1/f549a48962f97668ee442149d558a50d/versionedparcelable-1.1.0/AndroidManifest.xml:20:5-22:41
MERGED from [androidx.versionedparcelable:versionedparcelable:1.1.0] /Users/christopherluna/.gradle/caches/transforms-2/files-2.1/f549a48962f97668ee442149d558a50d/versionedparcelable-1.1.0/AndroidManifest.xml:20:5-22:41
MERGED from [androidx.cardview:cardview:1.0.0] /Users/christopherluna/.gradle/caches/transforms-2/files-2.1/1955be693eb56c1139576e45ec90d484/cardview-1.0.0/AndroidManifest.xml:20:5-44
MERGED from [androidx.cardview:cardview:1.0.0] /Users/christopherluna/.gradle/caches/transforms-2/files-2.1/1955be693eb56c1139576e45ec90d484/cardview-1.0.0/AndroidManifest.xml:20:5-44
MERGED from [androidx.interpolator:interpolator:1.0.0] /Users/christopherluna/.gradle/caches/transforms-2/files-2.1/411b57b9b14e2dce30437831b520790e/interpolator-1.0.0/AndroidManifest.xml:20:5-44
MERGED from [androidx.interpolator:interpolator:1.0.0] /Users/christopherluna/.gradle/caches/transforms-2/files-2.1/411b57b9b14e2dce30437831b520790e/interpolator-1.0.0/AndroidManifest.xml:20:5-44
MERGED from [com.google.android.datatransport:transport-backend-cct:2.2.0] /Users/christopherluna/.gradle/caches/transforms-2/files-2.1/80740ea671f9509e07d6a34e2b93f75c/jetified-transport-backend-cct-2.2.0/AndroidManifest.xml:19:5-21:41
MERGED from [com.google.android.datatransport:transport-backend-cct:2.2.0] /Users/christopherluna/.gradle/caches/transforms-2/files-2.1/80740ea671f9509e07d6a34e2b93f75c/jetified-transport-backend-cct-2.2.0/AndroidManifest.xml:19:5-21:41
MERGED from [com.google.android.datatransport:transport-runtime:2.2.0] /Users/christopherluna/.gradle/caches/transforms-2/files-2.1/65c9f7529c4981d43c925fa693badfa2/jetified-transport-runtime-2.2.0/AndroidManifest.xml:18:5-20:41
MERGED from [com.google.android.datatransport:transport-runtime:2.2.0] /Users/christopherluna/.gradle/caches/transforms-2/files-2.1/65c9f7529c4981d43c925fa693badfa2/jetified-transport-runtime-2.2.0/AndroidManifest.xml:18:5-20:41
MERGED from [com.google.firebase:firebase-components:16.0.0] /Users/christopherluna/.gradle/caches/transforms-2/files-2.1/5e826c1b109742f8bca7b17a6327c1d0/jetified-firebase-components-16.0.0/AndroidManifest.xml:19:5-21:41
MERGED from [com.google.firebase:firebase-components:16.0.0] /Users/christopherluna/.gradle/caches/transforms-2/files-2.1/5e826c1b109742f8bca7b17a6327c1d0/jetified-firebase-components-16.0.0/AndroidManifest.xml:19:5-21:41
MERGED from [com.google.firebase:firebase-encoders-json:16.0.0] /Users/christopherluna/.gradle/caches/transforms-2/files-2.1/f9d65e81b499a1a3336efc50b9a88ef3/jetified-firebase-encoders-json-16.0.0/AndroidManifest.xml:19:5-21:41
MERGED from [com.google.firebase:firebase-encoders-json:16.0.0] /Users/christopherluna/.gradle/caches/transforms-2/files-2.1/f9d65e81b499a1a3336efc50b9a88ef3/jetified-firebase-encoders-json-16.0.0/AndroidManifest.xml:19:5-21:41
MERGED from [androidx.lifecycle:lifecycle-runtime:2.1.0] /Users/christopherluna/.gradle/caches/transforms-2/files-2.1/a37cc7d38ecba109ecfb72735d489975/lifecycle-runtime-2.1.0/AndroidManifest.xml:20:5-44
MERGED from [androidx.lifecycle:lifecycle-runtime:2.1.0] /Users/christopherluna/.gradle/caches/transforms-2/files-2.1/a37cc7d38ecba109ecfb72735d489975/lifecycle-runtime-2.1.0/AndroidManifest.xml:20:5-44
MERGED from [androidx.lifecycle:lifecycle-viewmodel:2.1.0] /Users/christopherluna/.gradle/caches/transforms-2/files-2.1/c6f5bca5887ecb4409ba6069f8d7382e/lifecycle-viewmodel-2.1.0/AndroidManifest.xml:20:5-44
MERGED from [androidx.lifecycle:lifecycle-viewmodel:2.1.0] /Users/christopherluna/.gradle/caches/transforms-2/files-2.1/c6f5bca5887ecb4409ba6069f8d7382e/lifecycle-viewmodel-2.1.0/AndroidManifest.xml:20:5-44
MERGED from [androidx.savedstate:savedstate:1.0.0] /Users/christopherluna/.gradle/caches/transforms-2/files-2.1/cae9d7df45129530ff877ef3c8a4c88d/jetified-savedstate-1.0.0/AndroidManifest.xml:20:5-22:41
MERGED from [androidx.savedstate:savedstate:1.0.0] /Users/christopherluna/.gradle/caches/transforms-2/files-2.1/cae9d7df45129530ff877ef3c8a4c88d/jetified-savedstate-1.0.0/AndroidManifest.xml:20:5-22:41
MERGED from [androidx.lifecycle:lifecycle-livedata:2.0.0] /Users/christopherluna/.gradle/caches/transforms-2/files-2.1/8688f7244dd4ab0541bbbfd60a830f17/lifecycle-livedata-2.0.0/AndroidManifest.xml:20:5-44
MERGED from [androidx.lifecycle:lifecycle-livedata:2.0.0] /Users/christopherluna/.gradle/caches/transforms-2/files-2.1/8688f7244dd4ab0541bbbfd60a830f17/lifecycle-livedata-2.0.0/AndroidManifest.xml:20:5-44
MERGED from [androidx.lifecycle:lifecycle-livedata-core:2.0.0] /Users/christopherluna/.gradle/caches/transforms-2/files-2.1/e31b71f57c5cf8e3a670371795980592/lifecycle-livedata-core-2.0.0/AndroidManifest.xml:20:5-44
MERGED from [androidx.lifecycle:lifecycle-livedata-core:2.0.0] /Users/christopherluna/.gradle/caches/transforms-2/files-2.1/e31b71f57c5cf8e3a670371795980592/lifecycle-livedata-core-2.0.0/AndroidManifest.xml:20:5-44
MERGED from [androidx.arch.core:core-runtime:2.0.0] /Users/christopherluna/.gradle/caches/transforms-2/files-2.1/dfe8cc82fa279aa5c223402d6e9d41f9/core-runtime-2.0.0/AndroidManifest.xml:20:5-44
MERGED from [androidx.arch.core:core-runtime:2.0.0] /Users/christopherluna/.gradle/caches/transforms-2/files-2.1/dfe8cc82fa279aa5c223402d6e9d41f9/core-runtime-2.0.0/AndroidManifest.xml:20:5-44
MERGED from [androidx.documentfile:documentfile:1.0.0] /Users/christopherluna/.gradle/caches/transforms-2/files-2.1/86aa7fcb6f12855a4b953477a2672233/documentfile-1.0.0/AndroidManifest.xml:20:5-44
MERGED from [androidx.documentfile:documentfile:1.0.0] /Users/christopherluna/.gradle/caches/transforms-2/files-2.1/86aa7fcb6f12855a4b953477a2672233/documentfile-1.0.0/AndroidManifest.xml:20:5-44
MERGED from [androidx.print:print:1.0.0] /Users/christopherluna/.gradle/caches/transforms-2/files-2.1/6320adba18b4d4720bd8695f5fffc52f/print-1.0.0/AndroidManifest.xml:20:5-44
MERGED from [androidx.print:print:1.0.0] /Users/christopherluna/.gradle/caches/transforms-2/files-2.1/6320adba18b4d4720bd8695f5fffc52f/print-1.0.0/AndroidManifest.xml:20:5-44
MERGED from [org.apache.cordova:framework:7.0.0] /Users/christopherluna/.gradle/caches/transforms-2/files-2.1/c1ca5d0a1b33de69d3f35337e7942eb8/jetified-framework-7.0.0/AndroidManifest.xml:25:5-44
MERGED from [org.apache.cordova:framework:7.0.0] /Users/christopherluna/.gradle/caches/transforms-2/files-2.1/c1ca5d0a1b33de69d3f35337e7942eb8/jetified-framework-7.0.0/AndroidManifest.xml:25:5-44
MERGED from [com.google.android.datatransport:transport-api:2.2.0] /Users/christopherluna/.gradle/caches/transforms-2/files-2.1/2915d1d7082de4bb0fb820d3fa381a33/jetified-transport-api-2.2.0/AndroidManifest.xml:18:5-20:41
MERGED from [com.google.android.datatransport:transport-api:2.2.0] /Users/christopherluna/.gradle/caches/transforms-2/files-2.1/2915d1d7082de4bb0fb820d3fa381a33/jetified-transport-api-2.2.0/AndroidManifest.xml:18:5-20:41
INJECTED from /Users/christopherluna/Documents/work/newInfocap/android/app/src/main/AndroidManifest.xml
INJECTED from /Users/christopherluna/Documents/work/newInfocap/android/app/src/main/AndroidManifest.xml
	android:targetSdkVersion
		INJECTED from /Users/christopherluna/Documents/work/newInfocap/android/app/src/main/AndroidManifest.xml
		ADDED from /Users/christopherluna/Documents/work/newInfocap/android/app/src/main/AndroidManifest.xml
		INJECTED from /Users/christopherluna/Documents/work/newInfocap/android/app/src/main/AndroidManifest.xml
	android:minSdkVersion
		INJECTED from /Users/christopherluna/Documents/work/newInfocap/android/app/src/main/AndroidManifest.xml
		ADDED from /Users/christopherluna/Documents/work/newInfocap/android/app/src/main/AndroidManifest.xml
		INJECTED from /Users/christopherluna/Documents/work/newInfocap/android/app/src/main/AndroidManifest.xml
meta-data#android.support.FILE_PROVIDER_PATHS
ADDED from /Users/christopherluna/Documents/work/newInfocap/android/app/src/main/AndroidManifest.xml:39:13-41:64
	android:resource
		ADDED from /Users/christopherluna/Documents/work/newInfocap/android/app/src/main/AndroidManifest.xml:41:17-51
	android:name
		ADDED from /Users/christopherluna/Documents/work/newInfocap/android/app/src/main/AndroidManifest.xml:40:17-67
uses-feature#android.hardware.camera
ADDED from [:capacitor-android] /Users/christopherluna/Documents/work/newInfocap/node_modules/@capacitor/android/capacitor/build/intermediates/library_manifest/debug/AndroidManifest.xml:11:5-13:36
	android:required
		ADDED from [:capacitor-android] /Users/christopherluna/Documents/work/newInfocap/node_modules/@capacitor/android/capacitor/build/intermediates/library_manifest/debug/AndroidManifest.xml:13:9-33
	android:name
		ADDED from [:capacitor-android] /Users/christopherluna/Documents/work/newInfocap/node_modules/@capacitor/android/capacitor/build/intermediates/library_manifest/debug/AndroidManifest.xml:12:9-47
uses-permission#android.permission.RECEIVE_BOOT_COMPLETED
ADDED from [:capacitor-android] /Users/christopherluna/Documents/work/newInfocap/node_modules/@capacitor/android/capacitor/build/intermediates/library_manifest/debug/AndroidManifest.xml:15:5-81
	android:name
		ADDED from [:capacitor-android] /Users/christopherluna/Documents/work/newInfocap/node_modules/@capacitor/android/capacitor/build/intermediates/library_manifest/debug/AndroidManifest.xml:15:22-78
uses-permission#android.permission.WAKE_LOCK
ADDED from [:capacitor-android] /Users/christopherluna/Documents/work/newInfocap/node_modules/@capacitor/android/capacitor/build/intermediates/library_manifest/debug/AndroidManifest.xml:16:5-68
MERGED from [com.google.firebase:firebase-iid:20.1.1] /Users/christopherluna/.gradle/caches/transforms-2/files-2.1/199793d6c6cd32607f7663b06913b6b0/jetified-firebase-iid-20.1.1/AndroidManifest.xml:24:5-68
MERGED from [com.google.firebase:firebase-iid:20.1.1] /Users/christopherluna/.gradle/caches/transforms-2/files-2.1/199793d6c6cd32607f7663b06913b6b0/jetified-firebase-iid-20.1.1/AndroidManifest.xml:24:5-68
	android:name
		ADDED from [:capacitor-android] /Users/christopherluna/Documents/work/newInfocap/node_modules/@capacitor/android/capacitor/build/intermediates/library_manifest/debug/AndroidManifest.xml:16:22-65
service#com.getcapacitor.plugin.background.BackgroundTaskService
ADDED from [:capacitor-android] /Users/christopherluna/Documents/work/newInfocap/node_modules/@capacitor/android/capacitor/build/intermediates/library_manifest/debug/AndroidManifest.xml:19:9-21:40
	android:exported
		ADDED from [:capacitor-android] /Users/christopherluna/Documents/work/newInfocap/node_modules/@capacitor/android/capacitor/build/intermediates/library_manifest/debug/AndroidManifest.xml:21:13-37
	android:name
		ADDED from [:capacitor-android] /Users/christopherluna/Documents/work/newInfocap/node_modules/@capacitor/android/capacitor/build/intermediates/library_manifest/debug/AndroidManifest.xml:20:13-84
receiver#com.getcapacitor.plugin.notification.TimedNotificationPublisher
ADDED from [:capacitor-android] /Users/christopherluna/Documents/work/newInfocap/node_modules/@capacitor/android/capacitor/build/intermediates/library_manifest/debug/AndroidManifest.xml:23:9-100
	android:name
		ADDED from [:capacitor-android] /Users/christopherluna/Documents/work/newInfocap/node_modules/@capacitor/android/capacitor/build/intermediates/library_manifest/debug/AndroidManifest.xml:23:19-97
receiver#com.getcapacitor.plugin.notification.NotificationDismissReceiver
ADDED from [:capacitor-android] /Users/christopherluna/Documents/work/newInfocap/node_modules/@capacitor/android/capacitor/build/intermediates/library_manifest/debug/AndroidManifest.xml:24:9-101
	android:name
		ADDED from [:capacitor-android] /Users/christopherluna/Documents/work/newInfocap/node_modules/@capacitor/android/capacitor/build/intermediates/library_manifest/debug/AndroidManifest.xml:24:19-98
meta-data#firebase_messaging_auto_init_enabled
ADDED from [:capacitor-android] /Users/christopherluna/Documents/work/newInfocap/node_modules/@capacitor/android/capacitor/build/intermediates/library_manifest/debug/AndroidManifest.xml:26:9-28:37
	android:value
		ADDED from [:capacitor-android] /Users/christopherluna/Documents/work/newInfocap/node_modules/@capacitor/android/capacitor/build/intermediates/library_manifest/debug/AndroidManifest.xml:28:13-34
	android:name
		ADDED from [:capacitor-android] /Users/christopherluna/Documents/work/newInfocap/node_modules/@capacitor/android/capacitor/build/intermediates/library_manifest/debug/AndroidManifest.xml:27:13-64
service#com.getcapacitor.CapacitorFirebaseMessagingService
ADDED from [:capacitor-android] /Users/christopherluna/Documents/work/newInfocap/node_modules/@capacitor/android/capacitor/build/intermediates/library_manifest/debug/AndroidManifest.xml:30:9-36:19
	android:stopWithTask
		ADDED from [:capacitor-android] /Users/christopherluna/Documents/work/newInfocap/node_modules/@capacitor/android/capacitor/build/intermediates/library_manifest/debug/AndroidManifest.xml:32:13-41
	android:name
		ADDED from [:capacitor-android] /Users/christopherluna/Documents/work/newInfocap/node_modules/@capacitor/android/capacitor/build/intermediates/library_manifest/debug/AndroidManifest.xml:31:13-78
intent-filter#action:name:com.google.firebase.MESSAGING_EVENT
ADDED from [:capacitor-android] /Users/christopherluna/Documents/work/newInfocap/node_modules/@capacitor/android/capacitor/build/intermediates/library_manifest/debug/AndroidManifest.xml:33:13-35:29
action#com.google.firebase.MESSAGING_EVENT
ADDED from [:capacitor-android] /Users/christopherluna/Documents/work/newInfocap/node_modules/@capacitor/android/capacitor/build/intermediates/library_manifest/debug/AndroidManifest.xml:34:17-78
	android:name
		ADDED from [:capacitor-android] /Users/christopherluna/Documents/work/newInfocap/node_modules/@capacitor/android/capacitor/build/intermediates/library_manifest/debug/AndroidManifest.xml:34:25-75
receiver#com.getcapacitor.plugin.notification.LocalNotificationRestoreReceiver
ADDED from [:capacitor-android] /Users/christopherluna/Documents/work/newInfocap/node_modules/@capacitor/android/capacitor/build/intermediates/library_manifest/debug/AndroidManifest.xml:38:9-47:20
	android:exported
		ADDED from [:capacitor-android] /Users/christopherluna/Documents/work/newInfocap/node_modules/@capacitor/android/capacitor/build/intermediates/library_manifest/debug/AndroidManifest.xml:41:13-37
	android:directBootAware
		ADDED from [:capacitor-android] /Users/christopherluna/Documents/work/newInfocap/node_modules/@capacitor/android/capacitor/build/intermediates/library_manifest/debug/AndroidManifest.xml:40:13-43
	android:name
		ADDED from [:capacitor-android] /Users/christopherluna/Documents/work/newInfocap/node_modules/@capacitor/android/capacitor/build/intermediates/library_manifest/debug/AndroidManifest.xml:39:13-97
intent-filter#action:name:android.intent.action.BOOT_COMPLETED+action:name:android.intent.action.LOCKED_BOOT_COMPLETED+action:name:android.intent.action.QUICKBOOT_POWERON
ADDED from [:capacitor-android] /Users/christopherluna/Documents/work/newInfocap/node_modules/@capacitor/android/capacitor/build/intermediates/library_manifest/debug/AndroidManifest.xml:42:13-46:29
action#android.intent.action.LOCKED_BOOT_COMPLETED
ADDED from [:capacitor-android] /Users/christopherluna/Documents/work/newInfocap/node_modules/@capacitor/android/capacitor/build/intermediates/library_manifest/debug/AndroidManifest.xml:43:17-86
	android:name
		ADDED from [:capacitor-android] /Users/christopherluna/Documents/work/newInfocap/node_modules/@capacitor/android/capacitor/build/intermediates/library_manifest/debug/AndroidManifest.xml:43:25-83
action#android.intent.action.BOOT_COMPLETED
ADDED from [:capacitor-android] /Users/christopherluna/Documents/work/newInfocap/node_modules/@capacitor/android/capacitor/build/intermediates/library_manifest/debug/AndroidManifest.xml:44:17-79
	android:name
		ADDED from [:capacitor-android] /Users/christopherluna/Documents/work/newInfocap/node_modules/@capacitor/android/capacitor/build/intermediates/library_manifest/debug/AndroidManifest.xml:44:25-76
action#android.intent.action.QUICKBOOT_POWERON
ADDED from [:capacitor-android] /Users/christopherluna/Documents/work/newInfocap/node_modules/@capacitor/android/capacitor/build/intermediates/library_manifest/debug/AndroidManifest.xml:45:17-82
	android:name
		ADDED from [:capacitor-android] /Users/christopherluna/Documents/work/newInfocap/node_modules/@capacitor/android/capacitor/build/intermediates/library_manifest/debug/AndroidManifest.xml:45:25-79
service#com.google.firebase.messaging.FirebaseMessagingService
ADDED from [com.google.firebase:firebase-messaging:20.1.2] /Users/christopherluna/.gradle/caches/transforms-2/files-2.1/c6fe0f05486c9f14086b1b659ca69db6/jetified-firebase-messaging-20.1.2/AndroidManifest.xml:28:9-34:19
	android:exported
		ADDED from [com.google.firebase:firebase-messaging:20.1.2] /Users/christopherluna/.gradle/caches/transforms-2/files-2.1/c6fe0f05486c9f14086b1b659ca69db6/jetified-firebase-messaging-20.1.2/AndroidManifest.xml:30:13-37
	android:name
		ADDED from [com.google.firebase:firebase-messaging:20.1.2] /Users/christopherluna/.gradle/caches/transforms-2/files-2.1/c6fe0f05486c9f14086b1b659ca69db6/jetified-firebase-messaging-20.1.2/AndroidManifest.xml:29:13-82
service#com.google.firebase.components.ComponentDiscoveryService
ADDED from [com.google.firebase:firebase-messaging:20.1.2] /Users/christopherluna/.gradle/caches/transforms-2/files-2.1/c6fe0f05486c9f14086b1b659ca69db6/jetified-firebase-messaging-20.1.2/AndroidManifest.xml:35:9-41:19
MERGED from [com.google.firebase:firebase-datatransport:17.0.3] /Users/christopherluna/.gradle/caches/transforms-2/files-2.1/3df16c329eb72525b235a791e531d7a8/jetified-firebase-datatransport-17.0.3/AndroidManifest.xml:25:9-31:19
MERGED from [com.google.firebase:firebase-datatransport:17.0.3] /Users/christopherluna/.gradle/caches/transforms-2/files-2.1/3df16c329eb72525b235a791e531d7a8/jetified-firebase-datatransport-17.0.3/AndroidManifest.xml:25:9-31:19
MERGED from [com.google.firebase:firebase-iid:20.1.1] /Users/christopherluna/.gradle/caches/transforms-2/files-2.1/199793d6c6cd32607f7663b06913b6b0/jetified-firebase-iid-20.1.1/AndroidManifest.xml:29:9-35:19
MERGED from [com.google.firebase:firebase-iid:20.1.1] /Users/christopherluna/.gradle/caches/transforms-2/files-2.1/199793d6c6cd32607f7663b06913b6b0/jetified-firebase-iid-20.1.1/AndroidManifest.xml:29:9-35:19
MERGED from [com.google.firebase:firebase-installations:16.0.0] /Users/christopherluna/.gradle/caches/transforms-2/files-2.1/1fc34a2957977e5d72908a2cfd4e5c7c/jetified-firebase-installations-16.0.0/AndroidManifest.xml:14:9-20:19
MERGED from [com.google.firebase:firebase-installations:16.0.0] /Users/christopherluna/.gradle/caches/transforms-2/files-2.1/1fc34a2957977e5d72908a2cfd4e5c7c/jetified-firebase-installations-16.0.0/AndroidManifest.xml:14:9-20:19
MERGED from [com.google.firebase:firebase-common:19.3.0] /Users/christopherluna/.gradle/caches/transforms-2/files-2.1/561224d95afb1c86e82bde3d66c2b645/jetified-firebase-common-19.3.0/AndroidManifest.xml:32:9-36:35
MERGED from [com.google.firebase:firebase-common:19.3.0] /Users/christopherluna/.gradle/caches/transforms-2/files-2.1/561224d95afb1c86e82bde3d66c2b645/jetified-firebase-common-19.3.0/AndroidManifest.xml:32:9-36:35
	android:exported
		ADDED from [com.google.firebase:firebase-messaging:20.1.2] /Users/christopherluna/.gradle/caches/transforms-2/files-2.1/c6fe0f05486c9f14086b1b659ca69db6/jetified-firebase-messaging-20.1.2/AndroidManifest.xml:37:13-37
	tools:targetApi
		ADDED from [com.google.firebase:firebase-common:19.3.0] /Users/christopherluna/.gradle/caches/transforms-2/files-2.1/561224d95afb1c86e82bde3d66c2b645/jetified-firebase-common-19.3.0/AndroidManifest.xml:36:13-32
	android:directBootAware
		ADDED from [com.google.firebase:firebase-common:19.3.0] /Users/christopherluna/.gradle/caches/transforms-2/files-2.1/561224d95afb1c86e82bde3d66c2b645/jetified-firebase-common-19.3.0/AndroidManifest.xml:34:13-43
	android:name
		ADDED from [com.google.firebase:firebase-messaging:20.1.2] /Users/christopherluna/.gradle/caches/transforms-2/files-2.1/c6fe0f05486c9f14086b1b659ca69db6/jetified-firebase-messaging-20.1.2/AndroidManifest.xml:36:13-84
meta-data#com.google.firebase.components:com.google.firebase.messaging.FirebaseMessagingRegistrar
ADDED from [com.google.firebase:firebase-messaging:20.1.2] /Users/christopherluna/.gradle/caches/transforms-2/files-2.1/c6fe0f05486c9f14086b1b659ca69db6/jetified-firebase-messaging-20.1.2/AndroidManifest.xml:38:13-40:85
	android:value
		ADDED from [com.google.firebase:firebase-messaging:20.1.2] /Users/christopherluna/.gradle/caches/transforms-2/files-2.1/c6fe0f05486c9f14086b1b659ca69db6/jetified-firebase-messaging-20.1.2/AndroidManifest.xml:40:17-82
	android:name
		ADDED from [com.google.firebase:firebase-messaging:20.1.2] /Users/christopherluna/.gradle/caches/transforms-2/files-2.1/c6fe0f05486c9f14086b1b659ca69db6/jetified-firebase-messaging-20.1.2/AndroidManifest.xml:39:17-119
meta-data#com.google.firebase.components:com.google.firebase.datatransport.TransportRegistrar
ADDED from [com.google.firebase:firebase-datatransport:17.0.3] /Users/christopherluna/.gradle/caches/transforms-2/files-2.1/3df16c329eb72525b235a791e531d7a8/jetified-firebase-datatransport-17.0.3/AndroidManifest.xml:28:13-30:85
	android:value
		ADDED from [com.google.firebase:firebase-datatransport:17.0.3] /Users/christopherluna/.gradle/caches/transforms-2/files-2.1/3df16c329eb72525b235a791e531d7a8/jetified-firebase-datatransport-17.0.3/AndroidManifest.xml:30:17-82
	android:name
		ADDED from [com.google.firebase:firebase-datatransport:17.0.3] /Users/christopherluna/.gradle/caches/transforms-2/files-2.1/3df16c329eb72525b235a791e531d7a8/jetified-firebase-datatransport-17.0.3/AndroidManifest.xml:29:17-115
uses-permission#com.google.android.c2dm.permission.RECEIVE
ADDED from [com.google.firebase:firebase-iid:20.1.1] /Users/christopherluna/.gradle/caches/transforms-2/files-2.1/199793d6c6cd32607f7663b06913b6b0/jetified-firebase-iid-20.1.1/AndroidManifest.xml:26:5-82
	android:name
		ADDED from [com.google.firebase:firebase-iid:20.1.1] /Users/christopherluna/.gradle/caches/transforms-2/files-2.1/199793d6c6cd32607f7663b06913b6b0/jetified-firebase-iid-20.1.1/AndroidManifest.xml:26:22-79
meta-data#com.google.firebase.components:com.google.firebase.iid.Registrar
ADDED from [com.google.firebase:firebase-iid:20.1.1] /Users/christopherluna/.gradle/caches/transforms-2/files-2.1/199793d6c6cd32607f7663b06913b6b0/jetified-firebase-iid-20.1.1/AndroidManifest.xml:32:13-34:85
	android:value
		ADDED from [com.google.firebase:firebase-iid:20.1.1] /Users/christopherluna/.gradle/caches/transforms-2/files-2.1/199793d6c6cd32607f7663b06913b6b0/jetified-firebase-iid-20.1.1/AndroidManifest.xml:34:17-82
	android:name
		ADDED from [com.google.firebase:firebase-iid:20.1.1] /Users/christopherluna/.gradle/caches/transforms-2/files-2.1/199793d6c6cd32607f7663b06913b6b0/jetified-firebase-iid-20.1.1/AndroidManifest.xml:33:17-96
receiver#com.google.firebase.iid.FirebaseInstanceIdReceiver
ADDED from [com.google.firebase:firebase-iid:20.1.1] /Users/christopherluna/.gradle/caches/transforms-2/files-2.1/199793d6c6cd32607f7663b06913b6b0/jetified-firebase-iid-20.1.1/AndroidManifest.xml:37:9-44:20
	android:exported
		ADDED from [com.google.firebase:firebase-iid:20.1.1] /Users/christopherluna/.gradle/caches/transforms-2/files-2.1/199793d6c6cd32607f7663b06913b6b0/jetified-firebase-iid-20.1.1/AndroidManifest.xml:39:13-36
	android:permission
		ADDED from [com.google.firebase:firebase-iid:20.1.1] /Users/christopherluna/.gradle/caches/transforms-2/files-2.1/199793d6c6cd32607f7663b06913b6b0/jetified-firebase-iid-20.1.1/AndroidManifest.xml:40:13-73
	android:name
		ADDED from [com.google.firebase:firebase-iid:20.1.1] /Users/christopherluna/.gradle/caches/transforms-2/files-2.1/199793d6c6cd32607f7663b06913b6b0/jetified-firebase-iid-20.1.1/AndroidManifest.xml:38:13-78
intent-filter#action:name:com.google.android.c2dm.intent.RECEIVE
ADDED from [com.google.firebase:firebase-iid:20.1.1] /Users/christopherluna/.gradle/caches/transforms-2/files-2.1/199793d6c6cd32607f7663b06913b6b0/jetified-firebase-iid-20.1.1/AndroidManifest.xml:41:13-43:29
action#com.google.android.c2dm.intent.RECEIVE
ADDED from [com.google.firebase:firebase-iid:20.1.1] /Users/christopherluna/.gradle/caches/transforms-2/files-2.1/199793d6c6cd32607f7663b06913b6b0/jetified-firebase-iid-20.1.1/AndroidManifest.xml:42:17-81
	android:name
		ADDED from [com.google.firebase:firebase-iid:20.1.1] /Users/christopherluna/.gradle/caches/transforms-2/files-2.1/199793d6c6cd32607f7663b06913b6b0/jetified-firebase-iid-20.1.1/AndroidManifest.xml:42:25-78
meta-data#com.google.firebase.components:com.google.firebase.installations.FirebaseInstallationsRegistrar
ADDED from [com.google.firebase:firebase-installations:16.0.0] /Users/christopherluna/.gradle/caches/transforms-2/files-2.1/1fc34a2957977e5d72908a2cfd4e5c7c/jetified-firebase-installations-16.0.0/AndroidManifest.xml:17:13-19:85
	android:value
		ADDED from [com.google.firebase:firebase-installations:16.0.0] /Users/christopherluna/.gradle/caches/transforms-2/files-2.1/1fc34a2957977e5d72908a2cfd4e5c7c/jetified-firebase-installations-16.0.0/AndroidManifest.xml:19:17-82
	android:name
		ADDED from [com.google.firebase:firebase-installations:16.0.0] /Users/christopherluna/.gradle/caches/transforms-2/files-2.1/1fc34a2957977e5d72908a2cfd4e5c7c/jetified-firebase-installations-16.0.0/AndroidManifest.xml:18:17-127
provider#com.google.firebase.provider.FirebaseInitProvider
ADDED from [com.google.firebase:firebase-common:19.3.0] /Users/christopherluna/.gradle/caches/transforms-2/files-2.1/561224d95afb1c86e82bde3d66c2b645/jetified-firebase-common-19.3.0/AndroidManifest.xml:26:9-30:39
	android:authorities
		ADDED from [com.google.firebase:firebase-common:19.3.0] /Users/christopherluna/.gradle/caches/transforms-2/files-2.1/561224d95afb1c86e82bde3d66c2b645/jetified-firebase-common-19.3.0/AndroidManifest.xml:28:13-72
	android:exported
		ADDED from [com.google.firebase:firebase-common:19.3.0] /Users/christopherluna/.gradle/caches/transforms-2/files-2.1/561224d95afb1c86e82bde3d66c2b645/jetified-firebase-common-19.3.0/AndroidManifest.xml:29:13-37
	android:initOrder
		ADDED from [com.google.firebase:firebase-common:19.3.0] /Users/christopherluna/.gradle/caches/transforms-2/files-2.1/561224d95afb1c86e82bde3d66c2b645/jetified-firebase-common-19.3.0/AndroidManifest.xml:30:13-36
	android:name
		ADDED from [com.google.firebase:firebase-common:19.3.0] /Users/christopherluna/.gradle/caches/transforms-2/files-2.1/561224d95afb1c86e82bde3d66c2b645/jetified-firebase-common-19.3.0/AndroidManifest.xml:27:13-77
activity#com.google.android.gms.common.api.GoogleApiActivity
ADDED from [com.google.android.gms:play-services-base:17.0.0] /Users/christopherluna/.gradle/caches/transforms-2/files-2.1/7c07e5a7fa6d974b3595f7f2f9a9eba1/jetified-play-services-base-17.0.0/AndroidManifest.xml:23:9-26:75
	android:exported
		ADDED from [com.google.android.gms:play-services-base:17.0.0] /Users/christopherluna/.gradle/caches/transforms-2/files-2.1/7c07e5a7fa6d974b3595f7f2f9a9eba1/jetified-play-services-base-17.0.0/AndroidManifest.xml:25:13-37
	android:theme
		ADDED from [com.google.android.gms:play-services-base:17.0.0] /Users/christopherluna/.gradle/caches/transforms-2/files-2.1/7c07e5a7fa6d974b3595f7f2f9a9eba1/jetified-play-services-base-17.0.0/AndroidManifest.xml:26:13-72
	android:name
		ADDED from [com.google.android.gms:play-services-base:17.0.0] /Users/christopherluna/.gradle/caches/transforms-2/files-2.1/7c07e5a7fa6d974b3595f7f2f9a9eba1/jetified-play-services-base-17.0.0/AndroidManifest.xml:24:13-79
meta-data#com.google.android.gms.version
ADDED from [com.google.android.gms:play-services-basement:17.0.0] /Users/christopherluna/.gradle/caches/transforms-2/files-2.1/a52bfb92d2b276c79d11db281b8aa668/jetified-play-services-basement-17.0.0/AndroidManifest.xml:23:9-25:69
	android:value
		ADDED from [com.google.android.gms:play-services-basement:17.0.0] /Users/christopherluna/.gradle/caches/transforms-2/files-2.1/a52bfb92d2b276c79d11db281b8aa668/jetified-play-services-basement-17.0.0/AndroidManifest.xml:25:13-66
	android:name
		ADDED from [com.google.android.gms:play-services-basement:17.0.0] /Users/christopherluna/.gradle/caches/transforms-2/files-2.1/a52bfb92d2b276c79d11db281b8aa668/jetified-play-services-basement-17.0.0/AndroidManifest.xml:24:13-58
service#com.google.android.datatransport.runtime.backends.TransportBackendDiscovery
ADDED from [com.google.android.datatransport:transport-backend-cct:2.2.0] /Users/christopherluna/.gradle/caches/transforms-2/files-2.1/80740ea671f9509e07d6a34e2b93f75c/jetified-transport-backend-cct-2.2.0/AndroidManifest.xml:29:9-35:19
MERGED from [com.google.android.datatransport:transport-runtime:2.2.0] /Users/christopherluna/.gradle/caches/transforms-2/files-2.1/65c9f7529c4981d43c925fa693badfa2/jetified-transport-runtime-2.2.0/AndroidManifest.xml:36:9-38:40
MERGED from [com.google.android.datatransport:transport-runtime:2.2.0] /Users/christopherluna/.gradle/caches/transforms-2/files-2.1/65c9f7529c4981d43c925fa693badfa2/jetified-transport-runtime-2.2.0/AndroidManifest.xml:36:9-38:40
	android:exported
		ADDED from [com.google.android.datatransport:transport-backend-cct:2.2.0] /Users/christopherluna/.gradle/caches/transforms-2/files-2.1/80740ea671f9509e07d6a34e2b93f75c/jetified-transport-backend-cct-2.2.0/AndroidManifest.xml:31:13-37
	android:name
		ADDED from [com.google.android.datatransport:transport-backend-cct:2.2.0] /Users/christopherluna/.gradle/caches/transforms-2/files-2.1/80740ea671f9509e07d6a34e2b93f75c/jetified-transport-backend-cct-2.2.0/AndroidManifest.xml:30:13-103
meta-data#backend:com.google.android.datatransport.cct.CctBackendFactory
ADDED from [com.google.android.datatransport:transport-backend-cct:2.2.0] /Users/christopherluna/.gradle/caches/transforms-2/files-2.1/80740ea671f9509e07d6a34e2b93f75c/jetified-transport-backend-cct-2.2.0/AndroidManifest.xml:32:13-34:39
	android:value
		ADDED from [com.google.android.datatransport:transport-backend-cct:2.2.0] /Users/christopherluna/.gradle/caches/transforms-2/files-2.1/80740ea671f9509e07d6a34e2b93f75c/jetified-transport-backend-cct-2.2.0/AndroidManifest.xml:34:17-36
	android:name
		ADDED from [com.google.android.datatransport:transport-backend-cct:2.2.0] /Users/christopherluna/.gradle/caches/transforms-2/files-2.1/80740ea671f9509e07d6a34e2b93f75c/jetified-transport-backend-cct-2.2.0/AndroidManifest.xml:33:17-94
service#com.google.android.datatransport.runtime.scheduling.jobscheduling.JobInfoSchedulerService
ADDED from [com.google.android.datatransport:transport-runtime:2.2.0] /Users/christopherluna/.gradle/caches/transforms-2/files-2.1/65c9f7529c4981d43c925fa693badfa2/jetified-transport-runtime-2.2.0/AndroidManifest.xml:26:9-30:19
	android:exported
		ADDED from [com.google.android.datatransport:transport-runtime:2.2.0] /Users/christopherluna/.gradle/caches/transforms-2/files-2.1/65c9f7529c4981d43c925fa693badfa2/jetified-transport-runtime-2.2.0/AndroidManifest.xml:28:13-37
	android:permission
		ADDED from [com.google.android.datatransport:transport-runtime:2.2.0] /Users/christopherluna/.gradle/caches/transforms-2/files-2.1/65c9f7529c4981d43c925fa693badfa2/jetified-transport-runtime-2.2.0/AndroidManifest.xml:29:13-69
	android:name
		ADDED from [com.google.android.datatransport:transport-runtime:2.2.0] /Users/christopherluna/.gradle/caches/transforms-2/files-2.1/65c9f7529c4981d43c925fa693badfa2/jetified-transport-runtime-2.2.0/AndroidManifest.xml:27:13-117
receiver#com.google.android.datatransport.runtime.scheduling.jobscheduling.AlarmManagerSchedulerBroadcastReceiver
ADDED from [com.google.android.datatransport:transport-runtime:2.2.0] /Users/christopherluna/.gradle/caches/transforms-2/files-2.1/65c9f7529c4981d43c925fa693badfa2/jetified-transport-runtime-2.2.0/AndroidManifest.xml:32:9-34:40
	android:exported
		ADDED from [com.google.android.datatransport:transport-runtime:2.2.0] /Users/christopherluna/.gradle/caches/transforms-2/files-2.1/65c9f7529c4981d43c925fa693badfa2/jetified-transport-runtime-2.2.0/AndroidManifest.xml:34:13-37
	android:name
		ADDED from [com.google.android.datatransport:transport-runtime:2.2.0] /Users/christopherluna/.gradle/caches/transforms-2/files-2.1/65c9f7529c4981d43c925fa693badfa2/jetified-transport-runtime-2.2.0/AndroidManifest.xml:33:13-132
